PlayerName, Hole1, Hole2, Hole3, Hole4, Hole5, Hole6, Hole7, Hole8, Hole9, Hole10, Hole11, Hole12, Hole13, Hole14, Hole15, Hole16, Hole17, Hole18, Hole19, Hole20, Hole21, Hole22, Hole23, Hole24, Hole25, Hole26, Hole27, Out, +/-, CourseName, LayoutName, Date, Notes
Par, 3, 3, 3, 3, 3, 3, 3, 3, 3, 3, 3, 3, 3, 3, 3, 3, 3, 3, 3, 3, 3, 3, 3, 3, 3, 3, 3, 81, E, Järva Discgolf Park, Default Layout, 2015-07-25 08:33 am
Riku, 3, 4, 3, 4, 3, 4, 6, 4, 3, 2, 4, 4, 4, 4, 2, 3, 5, 3, 3, 4, 4, 6, 4, 6, 5, 3, 3, 103, 22
Margit, 8, 7, 4, 5, 4, 5, 9, 6, 5, 5, 5, 4, 5, 6, 4, 5, 9, 6, 6, 6, 4, 6, 6, 6, 10, 6, 6, 158, 77
Jani, 3, 4, 3, 4, 4, 4, 6, 5, 5, 3, 3, 4, 4, 4, 4, 3, 6, 4, 3, 4, 3, 4, 3, 4, 4, 4, 3, 105, 24
Taina, 5, 6, 4, 5, 4, 7, 10, 8, 4, 3, 4, 4, 6, 6, 4, 7, 8, 5, 5, 7, 4, 6, 6, 10, 6, 4, 6, 154, 73
Jussi, 4, 4, 3, 3, 3, 4, 7, 4, 4, 3, 4, 3, 4, 5, 3, 4, 5, 3, 3, 5, 4, 3, 3, 6, 4, 4, 3, 105, 24
Sami, 3, 4, 3, 3, 3, 3, 5, 5, 3, 3, 3, 4, 3, 4, 2, 3, 6, 3, 3, 3, 4, 4, 2, 4, 5, 3, 2, 93, 12


